9/three_tb.vcd
$date
	Thu Oct 27 10:38:39 2022
$end
$version
	Icarus Verilog
$end
$timescale
	1ns
$end
$scope module three_tb $end
$var wire 1 ! f $end
$var reg 1 " En $end
$var reg 3 # W [2:0] $end
$scope module ex $end
$var wire 1 " En $end
$var wire 3 $ W [2:0] $end
$var wire 1 % a $end
$var wire 1 & e0 $end
$var wire 1 ' e1 $end
$var wire 1 ! f $end
$var wire 8 ( Y [0:7] $end
$scope module D0 $end
$var wire 1 & En $end
$var wire 2 ) W [1:0] $end
$var reg 4 * Y [0:3] $end
$upscope $end
$scope module D1 $end
$var wire 1 ' En $end
$var wire 2 + W [1:0] $end
$var reg 4 , Y [0:3] $end
$upscope $end
$upscope $end
$upscope $end
$enddefinitions $end
#0
$dumpvars
b0 ,
b0 +
b1000 *
b0 )
b10000000 (
0'
1&
1%
b0 $
b0 #
1"
0!
$end
#20
b1000000 (
b100 *
b1 )
b1 +
b1 #
b1 $
#40
b100000 (
b10 *
b10 )
b10 +
b10 #
b10 $
#60
1!
b10000 (
b1 *
b11 )
b11 +
b11 #
b11 $
#80
0!
0&
b1000 ,
0%
1'
b1000 (
b0 *
b0 )
b0 +
b100 #
b100 $
#100
1!
b100 (
b100 ,
b1 )
b1 +
b101 #
b101 $
#120
b10 (
b10 ,
b10 )
b10 +
b110 #
b110 $
#140
b1 (
b1 ,
b11 )
b11 +
b111 #
b111 $
