8/three_tb.vcd
$date
	Thu Oct 20 11:00:20 2022
$end
$version
	Icarus Verilog
$end
$timescale
	1s
$end
$scope module three_tb $end
$var wire 16 ! Y [0:15] $end
$var reg 1 " En $end
$var reg 4 # W [3:0] $end
$scope module ex $end
$var wire 1 " En $end
$var wire 4 $ W [3:0] $end
$var wire 16 % Y [0:15] $end
$var wire 16 & X [0:15] $end
$var wire 4 ' E [0:3] $end
$scope module D $end
$var wire 1 " En $end
$var wire 2 ( W [1:0] $end
$var reg 4 ) Y [0:3] $end
$upscope $end
$scope module D0 $end
$var wire 1 * En $end
$var wire 2 + W [1:0] $end
$var reg 4 , Y [0:3] $end
$upscope $end
$scope module D1 $end
$var wire 1 - En $end
$var wire 2 . W [1:0] $end
$var reg 4 / Y [0:3] $end
$upscope $end
$scope module D2 $end
$var wire 1 0 En $end
$var wire 2 1 W [1:0] $end
$var reg 4 2 Y [0:3] $end
$upscope $end
$scope module D3 $end
$var wire 1 3 En $end
$var wire 2 4 W [1:0] $end
$var reg 4 5 Y [0:3] $end
$upscope $end
$upscope $end
$upscope $end
$enddefinitions $end
#0
$dumpvars
b0 5
b0 4
03
b0 2
b0 1
00
b0 /
b0 .
0-
b1000 ,
b0 +
1*
b1000 )
b0 (
b1000 '
b1000000000000000 &
b111111111111111 %
b0 $
b0 #
1"
b111111111111111 !
$end
#20
b1011111111111111 !
b1011111111111111 %
b100000000000000 &
b100 ,
b1 +
b1 .
b1 1
b1 4
b1 #
b1 $
#40
b1101111111111111 !
b1101111111111111 %
b10000000000000 &
b10 ,
b10 +
b10 .
b10 1
b10 4
b10 #
b10 $
#60
b1110111111111111 !
b1110111111111111 %
b1000000000000 &
b1 ,
b11 +
b11 .
b11 1
b11 4
b11 #
b11 $
#80
b1000 /
1-
0*
b1111011111111111 !
b1111011111111111 %
b100 '
b100 )
b100000000000 &
b0 ,
b1 (
b0 +
b0 .
b0 1
b0 4
b100 #
b100 $
#100
b1111101111111111 !
b1111101111111111 %
b10000000000 &
b100 /
b1 +
b1 .
b1 1
b1 4
b101 #
b101 $
#120
b1111110111111111 !
b1111110111111111 %
b1000000000 &
b10 /
b10 +
b10 .
b10 1
b10 4
b110 #
b110 $
#140
b1111111011111111 !
b1111111011111111 %
b100000000 &
b1 /
b11 +
b11 .
b11 1
b11 4
b111 #
b111 $
#160
b1000 2
10
0-
b1111111101111111 !
b1111111101111111 %
b10 '
b10 )
b10000000 &
b0 /
b10 (
b0 +
b0 .
b0 1
b0 4
b1000 #
b1000 $
#180
b1111111110111111 !
b1111111110111111 %
b1000000 &
b100 2
b1 +
b1 .
b1 1
b1 4
b1001 #
b1001 $
#200
b1111111111011111 !
b1111111111011111 %
b100000 &
b10 2
b10 +
b10 .
b10 1
b10 4
b1010 #
b1010 $
#220
b1111111111101111 !
b1111111111101111 %
b10000 &
b1 2
b11 +
b11 .
b11 1
b11 4
b1011 #
b1011 $
#240
b1000 5
13
00
b1111111111110111 !
b1111111111110111 %
b1 '
b1 )
b1000 &
b0 2
b11 (
b0 +
b0 .
b0 1
b0 4
b1100 #
b1100 $
#260
b1111111111111011 !
b1111111111111011 %
b100 &
b100 5
b1 +
b1 .
b1 1
b1 4
b1101 #
b1101 $
#280
b1111111111111101 !
b1111111111111101 %
b10 &
b10 5
b10 +
b10 .
b10 1
b10 4
b1110 #
b1110 $
#300
b1111111111111110 !
b1111111111111110 %
b1 &
b1 5
b11 +
b11 .
b11 1
b11 4
b1111 #
b1111 $
#320
b1111111111111111 !
b1111111111111111 %
b0 &
b0 5
03
b10 (
b1 +
b1 .
b1 1
b1 4
b0 '
b0 )
b1001 #
b1001 $
0"
